^E:\VISUAL STUDIO\VISUAL STUDIO II\NEW FOLDER\UPDATEASSIGNMENT03\UPDATEASSIGNMENT03\UPDATEASSIGNMENT03\DEBUG\SOURCE.OBJ
E:\VISUAL STUDIO\VISUAL STUDIO II\NEW FOLDER\UPDATEASSIGNMENT03\UPDATEASSIGNMENT03\DEBUG\UPDATEASSIGNMENT03.EXE
E:\VISUAL STUDIO\VISUAL STUDIO II\NEW FOLDER\UPDATEASSIGNMENT03\UPDATEASSIGNMENT03\DEBUG\UPDATEASSIGNMENT03.ILK
E:\VISUAL STUDIO\VISUAL STUDIO II\NEW FOLDER\UPDATEASSIGNMENT03\UPDATEASSIGNMENT03\DEBUG\UPDATEASSIGNMENT03.PDB
