^E:\VISUAL STUDIO\VISUAL STUDIO II\ASSIGNMENT\ASSIGNMENT12\ASSIGNMENT12\ASSIGNMENT12\DEBUG\SOURCE.OBJ
E:\VISUAL STUDIO\VISUAL STUDIO II\ASSIGNMENT\ASSIGNMENT12\ASSIGNMENT12\DEBUG\ASSIGNMENT12.EXE
E:\VISUAL STUDIO\VISUAL STUDIO II\ASSIGNMENT\ASSIGNMENT12\ASSIGNMENT12\DEBUG\ASSIGNMENT12.ILK
E:\VISUAL STUDIO\VISUAL STUDIO II\ASSIGNMENT\ASSIGNMENT12\ASSIGNMENT12\DEBUG\ASSIGNMENT12.PDB
