^E:\VISUAL STUDIO\VISUAL STUDIO II\NEW FOLDER\UPDATEASSIGNMENT04\UPDATEASSIGNMENT04\UPDATEASSIGNMENT04\SOURCE.CPP
E:\VISUAL STUDIO\VISUAL STUDIO II\NEW FOLDER\UPDATEASSIGNMENT04\UPDATEASSIGNMENT04\UPDATEASSIGNMENT04\DEBUG\VC141.PDB
E:\VISUAL STUDIO\VISUAL STUDIO II\NEW FOLDER\UPDATEASSIGNMENT04\UPDATEASSIGNMENT04\UPDATEASSIGNMENT04\DEBUG\VC141.IDB
E:\VISUAL STUDIO\VISUAL STUDIO II\NEW FOLDER\UPDATEASSIGNMENT04\UPDATEASSIGNMENT04\UPDATEASSIGNMENT04\DEBUG\SOURCE.OBJ
