^E:\VISUAL STUDIO\VISUAL STUDIO II\NEW FOLDER\UPDATEASSIGNMENT04\UPDATEASSIGNMENT04\UPDATEASSIGNMENT04\DEBUG\SOURCE.OBJ
E:\VISUAL STUDIO\VISUAL STUDIO II\NEW FOLDER\UPDATEASSIGNMENT04\UPDATEASSIGNMENT04\DEBUG\UPDATEASSIGNMENT04.EXE
E:\VISUAL STUDIO\VISUAL STUDIO II\NEW FOLDER\UPDATEASSIGNMENT04\UPDATEASSIGNMENT04\DEBUG\UPDATEASSIGNMENT04.ILK
E:\VISUAL STUDIO\VISUAL STUDIO II\NEW FOLDER\UPDATEASSIGNMENT04\UPDATEASSIGNMENT04\DEBUG\UPDATEASSIGNMENT04.PDB
