^E:\VISUAL STUDIO\VISUAL STUDIO II\ASSIGNMENT\ASSIGNMENT10_1\ASSIGNMENT10_1\ASSIGNMENT10_1\SOURCE.CPP
E:\VISUAL STUDIO\VISUAL STUDIO II\ASSIGNMENT\ASSIGNMENT10_1\ASSIGNMENT10_1\ASSIGNMENT10_1\DEBUG\VC141.PDB
E:\VISUAL STUDIO\VISUAL STUDIO II\ASSIGNMENT\ASSIGNMENT10_1\ASSIGNMENT10_1\ASSIGNMENT10_1\DEBUG\VC141.IDB
E:\VISUAL STUDIO\VISUAL STUDIO II\ASSIGNMENT\ASSIGNMENT10_1\ASSIGNMENT10_1\ASSIGNMENT10_1\DEBUG\SOURCE.OBJ
