^E:\VISUAL STUDIO\VISUAL STUDIO II\ASSIGNMENT\ASSIGNMENT10\ASSIGNMENT10\ASSIGNMENT10\SOURCE.CPP
E:\VISUAL STUDIO\VISUAL STUDIO II\ASSIGNMENT\ASSIGNMENT10\ASSIGNMENT10\ASSIGNMENT10\DEBUG\VC141.PDB
E:\VISUAL STUDIO\VISUAL STUDIO II\ASSIGNMENT\ASSIGNMENT10\ASSIGNMENT10\ASSIGNMENT10\DEBUG\VC141.IDB
E:\VISUAL STUDIO\VISUAL STUDIO II\ASSIGNMENT\ASSIGNMENT10\ASSIGNMENT10\ASSIGNMENT10\DEBUG\SOURCE.OBJ
